<?xml version="1.0" encoding="UTF-8"?>
<!DOCTYPE svg PUBLIC "-//W3C//DTD SVG 1.1//EN" "http://www.w3.org/Graphics/SVG/1.1/DTD/svg11.dtd">
<!-- Creator: CorelDRAW X6 -->
<svg xmlns="http://www.w3.org/2000/svg" xml:space="preserve" width="210mm" height="297mm" version="1.1" style="shape-rendering:geometricPrecision; text-rendering:geometricPrecision; image-rendering:optimizeQuality; fill-rule:evenodd; clip-rule:evenodd"
viewBox="0 0 21000 29700"
 xmlns:xlink="http://www.w3.org/1999/xlink"
 enable-background="new 0 0 294 215">
 <defs>
  <style type="text/css">
   <![CDATA[
    .str0 {stroke:#434242;stroke-width:20}
    .str1 {stroke:#FEFEFE;stroke-width:20}
    .fil2 {fill:none}
    .fil0 {fill:#434242}
    .fil4 {fill:#EF7F1A}
    .fil3 {fill:#FEFEFE}
    .fil1 {fill:#FFF7B2}
   ]]>
  </style>
 </defs>
 <g id="Слой_x0020_1">
  <metadata id="CorelCorpID_0Corel-Layer"/>
  <g id="_299762656">
   <rect class="fil0 str0" x="6602" y="12808" width="7779" height="4815"/>
   <rect class="fil1 str1" x="6594" y="13907" width="7787" height="3720"/>
   <rect class="fil0 str0" x="6594" y="14213" width="2606" height="3414"/>
   <rect class="fil0 str0" x="11778" y="14196" width="2606" height="3414"/>
   <rect class="fil0 str0" x="9336" y="14213" width="2363" height="3414"/>
   <rect class="fil1 str1" x="9523" y="15384" width="1955" height="1037"/>
  </g>
  <g id="Background_x00a0_Image_1_">
  </g>
  <path class="fil2" d="M14223 12928l-7442 0c-73,0 -132,59 -132,132l0 4452c0,73 59,132 132,132l7442 0c73,0 132,-59 132,-132l0 -4452c0,-73 -59,-132 -132,-132z"/>
  <rect class="fil0" x="9731" y="15492" width="1541" height="820"/>
  <rect class="fil3" x="9834" y="15697" width="1336" height="513"/>
  <circle class="fil0" cx="10091" cy="15953" r="154"/>
  <circle class="fil0" cx="10913" cy="15953" r="154"/>
  <ellipse class="fil3" cx="7984" cy="15799" rx="1028" ry="1025"/>
  <ellipse class="fil4" cx="7984" cy="15799" rx="925" ry="923"/>
  <circle class="fil3" cx="7984" cy="15799" r="308"/>
  <ellipse class="fil3" cx="13019" cy="15799" rx="1028" ry="1025"/>
  <ellipse class="fil4" cx="13019" cy="15799" rx="925" ry="923"/>
  <circle class="fil3" cx="13019" cy="15799" r="308"/>
  <rect class="fil3" x="9012" y="13236" width="514" height="205"/>
  <rect class="fil3" x="9834" y="13236" width="514" height="205"/>
  <rect class="fil3" x="10656" y="13236" width="514" height="205"/>
  <rect class="fil3" x="11478" y="13236" width="514" height="205"/>
  <rect class="fil3" x="9525" y="13646" width="1952" height="103"/>
  <rect class="fil0" x="8806" y="12006" width="3391" height="308"/>
  <rect class="fil0" x="8806" y="12211" width="308" height="820"/>
  <rect class="fil0" x="11889" y="12211" width="308" height="820"/>
 </g>
</svg>
